…
minute_data <- read_rds("../../data/prep/minute_data__export_1.rds") %>% 
  fitibble(nonwear_method = "choi_HR")
```


```r
prep_daily_data(minute_data)
```

```
## Joining, by = c("id", "date")
```

```
## # A tibble: 1,470 × 12
##       id date       valid_mins nonvalid_mins    HR zero_steps_prop steps sed_bout_length sedentary_time_use light_time_use
##    <int> <date>          <int>         <int> <dbl>           <dbl> <dbl>           <dbl>              <dbl>          <dbl>
##  1     1 2019-04-26        780             0  93.5           0.910  1885            15.4              0.891         0.109 
##  2     1 2019-04-27        780             0  82.4           0.897  2690            17.8              0.891         0.109 
##  3     1 2019-04-28        780             0  90.7           0.937  1590            24.7              0.918         0.0718
##  4     1 2019-04-29        780             0 108.            0.956  1590            20.6              0.871         0.105 
##  5     1 2019-04-30        780             0 101.            0.953  1763            38.7              0.942         0.0577
##  6     1 2019-05-01        780             0 104.            0.881  2914            15.0              0.867         0.133 
##  7     1 2019-05-02        780             0  96.8           0.840  4650            13.1              0.837         0.131 
##  8     1 2019-05-03        780             0  97.5           0.886  2210            14.4              0.883         0.117 
##  9     1 2019-05-04        780             0  97.4           0.883  4495            20.9              0.883         0.0795
## 10     1 2019-05-05        780             0  97.9           0.842  6257            16.4              0.840         0.104 
## # … with 1,460 more rows, and 2 more variables: moderate_time_use <dbl>, active_time_use <dbl>
```


```r
prep_daily_data(minute_data, nonvalid = T)
```

```
## Joining, by = c("id", "date")
```

```
## # A tibble: 1,470 × 12
##       id date       valid_mins nonvalid_mins    HR zero_steps_prop steps sed_bout_length sedentary_time_use light_time_use
##    <int> <date>          <int>         <int> <dbl>           <dbl> <dbl>           <dbl>              <dbl>          <dbl>
##  1     1 2019-04-26        780             0   NaN             NaN   NaN             NaN                 NA             NA
##  2     1 2019-04-27        780             0   NaN             NaN   NaN             NaN                 NA             NA
##  3     1 2019-04-28        780             0   NaN             NaN   NaN             NaN                 NA             NA
##  4     1 2019-04-29        780             0   NaN             NaN   NaN             NaN                 NA             NA
##  5     1 2019-04-30        780             0   NaN             NaN   NaN             NaN                 NA             NA
##  6     1 2019-05-01        780             0   NaN             NaN   NaN             NaN                 NA             NA
##  7     1 2019-05-02        780             0   NaN             NaN   NaN             NaN                 NA             NA
##  8     1 2019-05-03        780             0   NaN             NaN   NaN             NaN                 NA             NA
##  9     1 2019-05-04        780             0   NaN             NaN   NaN             NaN                 NA             NA
## 10     1 2019-05-05        780             0   NaN             NaN   NaN             NaN                 NA             NA
## # … with 1,460 more rows, and 2 more variables: moderate_time_use <dbl>, active_time_use <dbl>
```
…
