…
```
## [1] "fitibble"   "tbl_df"     "tbl"        "data.frame"
```


```r
minute_data$is_wear = T
minute_data$is_adherent = T
minute_data$is_valid_day = T
fitibble:::validate_fitibble(minute_data)
```

```
## # A tibble: 15,503,040 × 9
##    time                   id label                                   HR steps intensity is_wear is_adherent is_valid_day
##    <dttm>              <int> <chr>                                <dbl> <dbl>     <dbl> <lgl>   <lgl>       <lgl>       
##  1 2019-01-26 00:00:00     1 0462-001 1.24.2021  2 years on study    64     0         0 TRUE    TRUE        TRUE        
##  2 2019-01-26 00:01:00     1 0462-001 1.24.2021  2 years on study    66     0         0 TRUE    TRUE        TRUE        
##  3 2019-01-26 00:02:00     1 0462-001 1.24.2021  2 years on study    64     0         0 TRUE    TRUE        TRUE        
##  4 2019-01-26 00:03:00     1 0462-001 1.24.2021  2 years on study    62     0         0 TRUE    TRUE        TRUE        
##  5 2019-01-26 00:04:00     1 0462-001 1.24.2021  2 years on study    61     0         0 TRUE    TRUE        TRUE        
##  6 2019-01-26 00:05:00     1 0462-001 1.24.2021  2 years on study    61     0         0 TRUE    TRUE        TRUE        
##  7 2019-01-26 00:06:00     1 0462-001 1.24.2021  2 years on study    63     0         0 TRUE    TRUE        TRUE        
##  8 2019-01-26 00:07:00     1 0462-001 1.24.2021  2 years on study    63     0         0 TRUE    TRUE        TRUE        
##  9 2019-01-26 00:08:00     1 0462-001 1.24.2021  2 years on study    60     0         0 TRUE    TRUE        TRUE        
## 10 2019-01-26 00:09:00     1 0462-001 1.24.2021  2 years on study    57     0         0 TRUE    TRUE        TRUE        
## # … with 15,503,030 more rows
## $intensity_colname
## [1] "intensity"
## 
## $intensity_levels
## sedentary     light  moderate    active 
##       "0"       "1"       "2"       "3"
```
…
* test fitibble function


```r
#use fitibble function
minute_data <- read_rds("../../data/prep/minute_data__export_2.rds") %>% 
  fitibble()
fitibble:::validate_fitibble(minute_data)
```

```
## # A tibble: 15,503,040 × 9
##       id time                label                                   HR steps intensity is_wear is_adherent is_valid_day
##    <int> <dttm>              <chr>                                <dbl> <dbl>     <dbl> <lgl>   <lgl>       <lgl>       
##  1     1 2019-01-26 00:00:00 0462-001 1.24.2021  2 years on study    64     0         0 TRUE    FALSE       TRUE        
##  2     1 2019-01-26 00:01:00 0462-001 1.24.2021  2 years on study    66     0         0 TRUE    FALSE       TRUE        
##  3     1 2019-01-26 00:02:00 0462-001 1.24.2021  2 years on study    64     0         0 TRUE    FALSE       TRUE        
##  4     1 2019-01-26 00:03:00 0462-001 1.24.2021  2 years on study    62     0         0 TRUE    FALSE       TRUE        
##  5     1 2019-01-26 00:04:00 0462-001 1.24.2021  2 years on study    61     0         0 TRUE    FALSE       TRUE        
##  6     1 2019-01-26 00:05:00 0462-001 1.24.2021  2 years on study    61     0         0 TRUE    FALSE       TRUE        
##  7     1 2019-01-26 00:06:00 0462-001 1.24.2021  2 years on study    63     0         0 TRUE    FALSE       TRUE        
##  8     1 2019-01-26 00:07:00 0462-001 1.24.2021  2 years on study    63     0         0 TRUE    FALSE       TRUE        
##  9     1 2019-01-26 00:08:00 0462-001 1.24.2021  2 years on study    60     0         0 TRUE    FALSE       TRUE        
## 10     1 2019-01-26 00:09:00 0462-001 1.24.2021  2 years on study    57     0         0 TRUE    FALSE       TRUE        
## # … with 15,503,030 more rows
## $intensity_colname
## [1] "intensity"
## 
## $intensity_levels
## sedentary     light  moderate    active 
##       "0"       "1"       "2"       "3"
```
…
```r
minute_data$nonsense <- 1
relevel_fitibble(
  minute_data, 
  intensity_colname = "nonsense", 
  intensity_levels = c(fool = "1")
  )
```

```
## # A tibble: 15,503,040 × 10
##       id time                label                              HR steps intensity is_wear is_adherent is_valid_day nonsense
##    <int> <dttm>              <chr>                           <dbl> <dbl>     <dbl> <lgl>   <lgl>       <lgl>           <dbl>
##  1     1 2019-01-26 00:00:00 0462-001 1.24.2021  2 years on…    64     0         0 TRUE    FALSE       TRUE                1
##  2     1 2019-01-26 00:01:00 0462-001 1.24.2021  2 years on…    66     0         0 TRUE    FALSE       TRUE                1
##  3     1 2019-01-26 00:02:00 0462-001 1.24.2021  2 years on…    64     0         0 TRUE    FALSE       TRUE                1
##  4     1 2019-01-26 00:03:00 0462-001 1.24.2021  2 years on…    62     0         0 TRUE    FALSE       TRUE                1
##  5     1 2019-01-26 00:04:00 0462-001 1.24.2021  2 years on…    61     0         0 TRUE    FALSE       TRUE                1
##  6     1 2019-01-26 00:05:00 0462-001 1.24.2021  2 years on…    61     0         0 TRUE    FALSE       TRUE                1
##  7     1 2019-01-26 00:06:00 0462-001 1.24.2021  2 years on…    63     0         0 TRUE    FALSE       TRUE                1
##  8     1 2019-01-26 00:07:00 0462-001 1.24.2021  2 years on…    63     0         0 TRUE    FALSE       TRUE                1
##  9     1 2019-01-26 00:08:00 0462-001 1.24.2021  2 years on…    60     0         0 TRUE    FALSE       TRUE                1
## 10     1 2019-01-26 00:09:00 0462-001 1.24.2021  2 years on…    57     0         0 TRUE    FALSE       TRUE                1
## # … with 15,503,030 more rows
## $intensity_colname
## [1] "nonsense"
## 
## $intensity_levels
## fool 
##  "1"
```
…
