…
```
## # A tibble: 46 × 4
##       id valid_adherent_hours valid_step_count ratio
##    <int>                <int>            <int> <dbl>
##  1    15                    0                1 0    
##  2    42                    2                4 0.5  
##  3    34                   29               47 0.617
##  4    32                   26               39 0.667
##  5    11                  195              287 0.679
##  6    23                   40               55 0.727
##  7    35                   69               91 0.758
##  8     3                    6                7 0.857
##  9    38                   60               70 0.857
## 10     8                   73               84 0.869
## # … with 36 more rows
```
…
```
## # A tibble: 46 × 3
##       id valid_adherent_hours valid_step_count
##    <int>                <int>            <int>
##  1     1                  341              244
##  2     2                   79               51
##  3     3                    7                8
##  4     4                  382              302
##  5     5                  246              235
##  6     6                   61               62
##  7     8                   86               88
##  8     9                  110              113
##  9    10                  213              215
## 10    11                  296              297
## # … with 36 more rows
```
