…
```r
library(tidyverse)
library(magrittr)
library(fitibble)
```


```r
fitabase_files <- read_fitabase_files("../../data/input/export_2.zip")
fitabase_files$files
```

```
## # A tibble: 147 × 6
##    filename                                                                     filetype  lines label    id is_valid_file_l…
##    <chr>                                                                        <chr>     <int> <chr> <int> <lgl>           
##  1 0462-001 1.24.2021  2 years on study_heartrate_1min_20190101_20220228.csv    HR       462421 0462…     1 TRUE            
##  2 0462-002 expired on 7.1.2020_heartrate_1min_20190101_20220228.csv            HR        87533 0462…     2 TRUE            
##  3 0462-003 expired on 3.7.2019_heartrate_1min_20190101_20220228.csv            HR         9752 0462…     3 TRUE            
##  4 0462-004  pt. returned to Kuwait 4.8.2020_heartrate_1min_20190101_20220228.… HR       476901 0462…     4 TRUE            
##  5 0462-006 off study 5.6.2021_heartrate_1min_20190101_20220228.csv             HR       345677 0462…     5 TRUE            
##  6 0462-007 completed 24 month follow-up 3.17.2021_heartrate_1min_20190101_202… HR        55999 0462…     6 TRUE            
##  7 0462-008 Unable to sync device_heartrate_1min_20190101_20220228.csv          HR            1 0462…     7 FALSE           
##  8 0462-009 Is completing trtmt at home station and not responding to messages… HR       110975 0462…     8 TRUE            
##  9 0462-010 Aug 17 2020 informed that device had been lost_heartrate_1min_2019… HR       155038 0462…     9 TRUE            
## 10 0462-011 pt confirmed it has been misplaced_heartrate_1min_20190101_2022022… HR       280427 0462…    10 TRUE            
## # … with 137 more rows
```


```r
fitabase_files$time_period
```

```
## # A tibble: 47 × 11
## # Rowwise: 
##       id label           min_HR_time         max_HR_time         min_steps_time      max_steps_time      min_intensity_time 
##    <int> <chr>           <dttm>              <dttm>              <dttm>              <dttm>              <dttm>             
##  1     1 0462-001 1.24.… 2019-01-25 13:07:00 2020-09-24 10:06:00 2019-01-25 00:00:00 2020-09-24 23:59:00 2019-01-25 00:00:00
##  2     2 0462-002 expir… 2019-02-01 07:16:00 2020-06-14 17:17:00 2019-02-01 00:00:00 2020-07-01 23:59:00 2019-02-01 00:00:00
##  3     3 0462-003 expir… 2019-03-04 08:14:00 2019-03-13 19:12:00 2019-03-04 00:00:00 2019-03-13 19:16:00 2019-03-04 00:00:00
##  4     4 0462-004  pt. … 2019-03-11 10:48:00 2020-11-07 23:28:00 2019-03-11 00:00:00 2020-11-08 08:07:00 2019-03-11 00:00:00
##  5     5 0462-006 off s… 2019-04-25 13:08:00 2021-12-02 22:14:00 2019-04-13 00:00:00 2021-12-11 23:59:00 2019-04-13 00:00:00
##  6     6 0462-007 compl… 2019-04-29 10:50:00 2019-07-01 13:11:00 2019-04-15 00:00:00 2021-05-06 10:16:00 2019-04-15 00:00:00
##  7     8 0462-009 Is co… 2019-05-30 14:12:00 2019-09-20 12:34:00 2019-05-30 00:00:00 2019-09-20 23:59:00 2019-05-30 00:00:00
##  8     9 0462-010 Aug 1… 2019-07-08 09:42:00 2020-04-22 19:40:00 2019-07-08 00:00:00 2020-08-27 23:59:00 2019-07-08 00:00:00
##  9    10 0462-011 pt co… 2019-11-12 12:56:00 2020-10-15 14:59:00 2019-11-12 00:00:00 2021-01-29 23:59:00 2019-11-12 00:00:00
## 10    11 0462-012_ 5.11… 2020-01-02 20:04:00 2021-03-08 14:46:00 2019-10-22 00:00:00 2021-03-08 23:59:00 2019-10-22 00:00:00
## # … with 37 more rows, and 4 more variables: max_intensity_time <dttm>, min_time <date>, max_time <dttm>,
## #   is_valid_time_period <lgl>
```
…
```r
minute_data <- prep_minute_data(fitabase_files)

minute_data %>% 
  group_by(id, label) %>% 
  summarise(HR_is_missing = sum(is.na(HR)), 
            steps_is_missing = sum(is.na(steps)))
```

```
## `summarise()` has grouped output by 'id'. You can override using the `.groups` argument.
```

```
## # A tibble: 46 × 4
## # Groups:   id [46]
##       id label                                                                       HR_is_missing steps_is_missing
##    <int> <chr>                                                                               <int>            <int>
##  1     1 0462-001 1.24.2021  2 years on study                                               412458                0
##  2     2 0462-002 expired on 7.1.2020                                                       631599                0
##  3     3 0462-003 expired on 3.7.2019                                                         3339                0
##  4     4 0462-004  pt. returned to Kuwait 4.8.2020                                          397791                0
##  5     5 0462-006 off study 5.6.2021                                                       1024505                0
##  6     6 0462-007 completed 24 month follow-up 3.17.2021                                     34846                0
##  7     8 0462-009 Is completing trtmt at home station and not responding to messages         50772                0
##  8     9 0462-010 Aug 17 2020 informed that device had been lost                            261716                0
##  9    10 0462-011 pt confirmed it has been misplaced                                        205674                0
## 10    11 0462-012_ 5.11.20 to11.11.20 gap                                                   396505                0
## # … with 36 more rows
```
…
